{
  "type": "tab",
  "id": "c450c0da.057c68",
  "label": "Sheet 1",
  "flow": [
    {
      "id": "50f5274c.24236",
      "type": "twitter-credentials",
      "z": "c450c0da.057c68",
      "screen_name": "@ibmamnt"
    },
    {
      "id": "98d10b8f.2a2b18",
      "type": "debug",
      "z": "c450c0da.057c68",
      "name": "",
      "active": true,
      "console": "false",
      "complete": "false",
      "x": 342,
      "y": 135,
      "wires": []
    }
  ]
}